<svg id="Edit" xmlns="http://www.w3.org/2000/svg" width="24" height="24" viewBox="0 0 24 24">
  <g id="Content_Edit_Pen" data-name="Content, Edit, Pen">
    <g id="Group_2144" data-name="Group 2144">
      <path id="Path_1053" data-name="Path 1053" d="M21,11v8a2,2,0,0,1-2,2H5a2,2,0,0,1-2-2V5A2,2,0,0,1,5,3h7" fill="none" stroke="#cbac77" stroke-linecap="round" stroke-linejoin="round" stroke-width="1.5"/>
      <path id="Path_1054" data-name="Path 1054" d="M9,15l3.15-.389a1,1,0,0,0,.585-.285L20.366,6.7a2.165,2.165,0,0,0,0-3.061h0a2.165,2.165,0,0,0-3.061,0l-7.56,7.56a1,1,0,0,0-.283.566L9,15Z" fill="none" stroke="#cbac77" stroke-linecap="round" stroke-linejoin="round" stroke-width="1.5"/>
    </g>
    <path id="Path_1055" data-name="Path 1055" d="M0,0H24V24H0Z" fill="none"/>
  </g>
</svg>
